{
   "photos": {
      "page": 1,
      "pages": 3379,
      "perpage": 25,
      "total": 84451,
      "photo": [
         {
            "id": "51444960384",
            "owner": "26544234@N03",
            "secret": "9eef795b40",
            "server": "65535",
            "farm": 66,
            "title": "DSCN2014",
            "ispublic": 1,
            "isfriend": 0,
            "isfamily": 0
         },
         {
            "id": "51444123936",
            "owner": "123895834@N08",
            "secret": "b32f4566a1",
            "server": "65535",
            "farm": 66,
            "title": "",
            "ispublic": 1,
            "isfriend": 0,
            "isfamily": 0
         },
         {
            "id": "51445014455",
            "owner": "150926124@N03",
            "secret": "f62c811e70",
            "server": "65535",
            "farm": 66,
            "title": "DSC02089",
            "ispublic": 1,
            "isfriend": 0,
            "isfamily": 0
         },
         {
            "id": "51443299112",
            "owner": "150926124@N03",
            "secret": "985e22f527",
            "server": "65535",
            "farm": 66,
            "title": "DSC01874",
            "ispublic": 1,
            "isfriend": 0,
            "isfamily": 0
         },
         {
            "id": "51445017505",
            "owner": "150926124@N03",
            "secret": "b3313c29cc",
            "server": "65535",
            "farm": 66,
            "title": "DSC01946",
            "ispublic": 1,
            "isfriend": 0,
            "isfamily": 0
         },
         {
            "id": "51443253617",
            "owner": "111724306@N07",
            "secret": "69348d2309",
            "server": "65535",
            "farm": 66,
            "title": "After the rain...",
            "ispublic": 1,
            "isfriend": 0,
            "isfamily": 0
         },
         {
            "id": "51443476801",
            "owner": "153086823@N02",
            "secret": "04d20311b7",
            "server": "65535",
            "farm": 66,
            "title": "Firu El salchicha !",
            "ispublic": 1,
            "isfriend": 0,
            "isfamily": 0
         },
         {
            "id": "51443876984",
            "owner": "185073491@N04",
            "secret": "928fbef33c",
            "server": "65535",
            "farm": 66,
            "title": "365-253 - Let sleeping dogs lie",
            "ispublic": 1,
            "isfriend": 0,
            "isfamily": 0
         },
         {
            "id": "51443354958",
            "owner": "35749339@N05",
            "secret": "f46d3bf50e",
            "server": "65535",
            "farm": 66,
            "title": "Sam the man",
            "ispublic": 1,
            "isfriend": 0,
            "isfamily": 0
         },
         {
            "id": "51444072920",
            "owner": "35749339@N05",
            "secret": "4305b10f00",
            "server": "65535",
            "farm": 66,
            "title": "Sam the man",
            "ispublic": 1,
            "isfriend": 0,
            "isfamily": 0
         },
         {
            "id": "51443322088",
            "owner": "29487672@N07",
            "secret": "5050efb2fb",
            "server": "65535",
            "farm": 66,
            "title": "Canine Facial Expression",
            "ispublic": 1,
            "isfriend": 0,
            "isfamily": 0
         },
         {
            "id": "51443745614",
            "owner": "12311269@N03",
            "secret": "da53e9c917",
            "server": "65535",
            "farm": 66,
            "title": "202108 MILO",
            "ispublic": 1,
            "isfriend": 0,
            "isfamily": 0
         },
         {
            "id": "51443685384",
            "owner": "193929536@N06",
            "secret": "5d744cd997",
            "server": "65535",
            "farm": 66,
            "title": "Dogs Enjoy Drag, Too",
            "ispublic": 1,
            "isfriend": 0,
            "isfamily": 0
         },
         {
            "id": "51442760496",
            "owner": "7141646@N02",
            "secret": "13ec611499",
            "server": "65535",
            "farm": 66,
            "title": "Chocolats PCKN Album Timbres \/ Cailler Serie XIX \/ Sammelbild 10",
            "ispublic": 1,
            "isfriend": 0,
            "isfamily": 0
         },
         {
            "id": "51443467364",
            "owner": "7141646@N02",
            "secret": "7b8b9919ce",
            "server": "65535",
            "farm": 66,
            "title": "Chocolats PCKN Album Timbres \/ Cailler Serie XIX \/ Sammelbild 6",
            "ispublic": 1,
            "isfriend": 0,
            "isfamily": 0
         },
         {
            "id": "51443687950",
            "owner": "7141646@N02",
            "secret": "d1607ea3d1",
            "server": "65535",
            "farm": 66,
            "title": "Chocolats PCKN Album Timbres \/ Cailler Serie XIX \/ Sammelbild 3",
            "ispublic": 1,
            "isfriend": 0,
            "isfamily": 0
         },
         {
            "id": "51443060825",
            "owner": "27718315@N02",
            "secret": "82de156b59",
            "server": "65535",
            "farm": 66,
            "title": "Dexter, Greenbank, August 2021",
            "ispublic": 1,
            "isfriend": 0,
            "isfamily": 0
         },
         {
            "id": "51442732279",
            "owner": "193917117@N06",
            "secret": "97fa52e174",
            "server": "65535",
            "farm": 66,
            "title": "Lenny Elton \ud83c\udf3c",
            "ispublic": 1,
            "isfriend": 0,
            "isfamily": 0
         },
         {
            "id": "51442516204",
            "owner": "16445093@N03",
            "secret": "63587da255",
            "server": "65535",
            "farm": 66,
            "title": "Mque",
            "ispublic": 1,
            "isfriend": 0,
            "isfamily": 0
         },
         {
            "id": "51441772476",
            "owner": "16445093@N03",
            "secret": "17475a8591",
            "server": "65535",
            "farm": 66,
            "title": "Saren?",
            "ispublic": 1,
            "isfriend": 0,
            "isfamily": 0
         },
         {
            "id": "51441771391",
            "owner": "16445093@N03",
            "secret": "63bacbe721",
            "server": "65535",
            "farm": 66,
            "title": "Elohs Irony",
            "ispublic": 1,
            "isfriend": 0,
            "isfamily": 0
         },
         {
            "id": "51442488530",
            "owner": "190559738@N05",
            "secret": "4d2f9b3acc",
            "server": "65535",
            "farm": 66,
            "title": "Kavya and Bentley",
            "ispublic": 1,
            "isfriend": 0,
            "isfamily": 0
         },
         {
            "id": "51441507476",
            "owner": "48330223@N07",
            "secret": "7e8a785165",
            "server": "65535",
            "farm": 66,
            "title": "Genetics",
            "ispublic": 1,
            "isfriend": 0,
            "isfamily": 0
         },
         {
            "id": "51441674203",
            "owner": "9197427@N06",
            "secret": "bdd40288ed",
            "server": "65535",
            "farm": 66,
            "title": "The 2021 Photo Project - August 23 - Day 235 - Enzo in the Sun",
            "ispublic": 1,
            "isfriend": 0,
            "isfamily": 0
         }
      ]
   }
}